<svg width="28" height="28" viewBox="0 0 28 28" fill="none" xmlns="http://www.w3.org/2000/svg">
<circle cx="14" cy="14" r="13" stroke="#3D5ECE" stroke-width="2"/>
<path d="M10 12.875L14 16.875L18 12.875" stroke="#3D5ECE" stroke-width="2" stroke-linecap="round" stroke-linejoin="round"/>
</svg>
