<svg width="96" height="30" viewBox="0 0 96 30" fill="none" xmlns="http://www.w3.org/2000/svg">
<path d="M10.512 23.24C9.072 23.24 7.768 23.032 6.6 22.616C5.448 22.184 4.464 21.576 3.648 20.792C2.848 19.992 2.224 19.032 1.776 17.912C1.344 16.776 1.128 15.504 1.128 14.096C1.128 12.64 1.36 11.312 1.824 10.112C2.304 8.896 2.968 7.856 3.816 6.992C4.664 6.128 5.68 5.464 6.864 5C8.048 4.52 9.36 4.28 10.8 4.28C11.792 4.28 12.736 4.416 13.632 4.688C14.528 4.96 15.496 5.4 16.536 6.008L16.992 4.52H17.856V10.592H16.656C16.336 9.088 15.688 7.92 14.712 7.088C13.752 6.256 12.544 5.84 11.088 5.84C9.248 5.84 7.816 6.552 6.792 7.976C5.784 9.384 5.28 11.36 5.28 13.904C5.28 16.4 5.776 18.312 6.768 19.64C7.76 20.968 9.2 21.632 11.088 21.632C12.448 21.632 13.504 21.288 14.256 20.6C15.024 19.896 15.408 18.928 15.408 17.696C15.408 16.96 15.216 16.424 14.832 16.088C14.448 15.736 13.8 15.52 12.888 15.44V14.48H20.664V15.44C19.88 15.44 19.336 15.616 19.032 15.968C18.728 16.304 18.576 16.92 18.576 17.816V21.008C18.224 21.008 17.928 21.024 17.688 21.056C17.448 21.072 17.208 21.12 16.968 21.2C16.744 21.264 16.488 21.376 16.2 21.536C15.912 21.696 15.552 21.904 15.12 22.16C13.888 22.88 12.352 23.24 10.512 23.24ZM33.9834 20.768C32.5274 22.416 30.7114 23.24 28.5354 23.24C27.5434 23.24 26.6394 23.088 25.8234 22.784C25.0234 22.464 24.3354 22.024 23.7594 21.464C23.1834 20.888 22.7354 20.208 22.4154 19.424C22.0954 18.64 21.9354 17.768 21.9354 16.808C21.9354 15.816 22.1034 14.912 22.4394 14.096C22.7754 13.264 23.2474 12.552 23.8554 11.96C24.4794 11.352 25.2074 10.88 26.0394 10.544C26.8874 10.208 27.8154 10.04 28.8234 10.04C30.5194 10.04 31.8394 10.496 32.7834 11.408C33.7274 12.32 34.1994 13.6 34.1994 15.248C34.1994 15.504 34.1594 15.664 34.0794 15.728C33.9994 15.776 33.7754 15.8 33.4074 15.8H25.6794C25.6154 15.944 25.5834 16.208 25.5834 16.592C25.5834 18.16 25.9194 19.4 26.5914 20.312C27.2794 21.224 28.2074 21.68 29.3754 21.68C30.0474 21.68 30.7114 21.528 31.3674 21.224C32.0394 20.92 32.6874 20.488 33.3114 19.928L33.9834 20.768ZM29.3274 14.456C29.9674 14.456 30.3754 14.424 30.5514 14.36C30.7434 14.28 30.8394 14.104 30.8394 13.832C30.8394 13.128 30.6394 12.552 30.2394 12.104C29.8394 11.656 29.3354 11.432 28.7274 11.432C28.0394 11.432 27.4234 11.72 26.8794 12.296C26.3514 12.856 26.0074 13.576 25.8474 14.456H29.3274ZM35.6625 11.6V10.52C36.6225 10.248 37.4225 9.84 38.0625 9.296C38.7185 8.736 39.2065 8.096 39.5265 7.376H40.7505V10.28H43.5105V11.6H40.7505V18.968C40.7505 19.96 40.8545 20.664 41.0625 21.08C41.2865 21.496 41.6545 21.704 42.1665 21.704C42.7905 21.704 43.2625 21.416 43.5825 20.84L44.0865 21.536C43.6385 22.672 42.5825 23.24 40.9185 23.24C39.8145 23.24 38.9505 22.984 38.3265 22.472C37.7185 21.96 37.4145 21.24 37.4145 20.312V11.6H35.6625Z" fill="#2B2C43"/>
<path d="M50.4186 19.28C50.4186 19.904 50.4426 20.4 50.4906 20.768C50.5546 21.12 50.6746 21.392 50.8506 21.584C51.0266 21.776 51.2826 21.904 51.6186 21.968C51.9546 22.016 52.4026 22.04 52.9626 22.04V23H44.9466V22.04C45.4266 22.008 45.8106 21.96 46.0986 21.896C46.3866 21.832 46.6026 21.704 46.7466 21.512C46.8906 21.32 46.9786 21.048 47.0106 20.696C47.0586 20.328 47.0826 19.84 47.0826 19.232V16.304C47.0826 15.312 47.0586 14.52 47.0106 13.928C46.9626 13.336 46.8586 12.88 46.6986 12.56C46.5386 12.24 46.3066 12.032 46.0026 11.936C45.7146 11.824 45.3306 11.768 44.8506 11.768V10.928L49.6506 10.04L50.0346 12.8H50.1306C50.5626 11.952 51.1306 11.28 51.8346 10.784C52.5386 10.288 53.2826 10.04 54.0666 10.04C54.6746 10.04 55.1706 10.192 55.5546 10.496C55.9386 10.8 56.1306 11.184 56.1306 11.648C56.1306 12.16 55.9786 12.592 55.6746 12.944C55.3866 13.296 54.9866 13.472 54.4746 13.472C54.2346 13.472 54.0186 13.424 53.8266 13.328C53.6346 13.232 53.4586 13.128 53.2986 13.016C53.1546 12.888 53.0026 12.776 52.8426 12.68C52.6986 12.568 52.5466 12.512 52.3866 12.512C52.0826 12.512 51.7946 12.712 51.5226 13.112C51.2506 13.512 51.0266 14.048 50.8506 14.72C50.7226 15.2 50.6186 15.744 50.5386 16.352C50.4586 16.944 50.4186 17.536 50.4186 18.128V19.28ZM64.4357 16.16C63.0917 16.768 62.0757 17.336 61.3877 17.864C60.7157 18.376 60.3797 18.912 60.3797 19.472C60.3797 19.936 60.5077 20.304 60.7637 20.576C61.0197 20.848 61.3397 20.984 61.7237 20.984C62.1077 20.984 62.4677 20.92 62.8037 20.792C63.1397 20.648 63.4277 20.464 63.6677 20.24C63.9077 20.016 64.0917 19.752 64.2197 19.448C64.3637 19.128 64.4357 18.792 64.4357 18.44V16.16ZM64.4357 14.888V13.88C64.4357 12.952 64.2677 12.28 63.9317 11.864C63.6117 11.432 63.1077 11.216 62.4197 11.216C61.9557 11.216 61.6037 11.344 61.3637 11.6C61.1237 11.84 60.8997 12.248 60.6917 12.824C60.5477 13.224 60.3397 13.536 60.0677 13.76C59.8117 13.984 59.4517 14.096 58.9877 14.096C58.5397 14.096 58.1957 13.96 57.9557 13.688C57.7157 13.416 57.5957 13.032 57.5957 12.536C57.5957 11.768 58.0117 11.16 58.8437 10.712C59.6917 10.264 60.9637 10.04 62.6597 10.04C64.4517 10.04 65.7317 10.368 66.4997 11.024C67.2677 11.664 67.6517 12.744 67.6517 14.264V19.52C67.6517 20.88 67.9237 21.56 68.4677 21.56C68.7717 21.56 69.0517 21.456 69.3077 21.248L69.6677 21.944C69.4437 22.344 69.0917 22.664 68.6117 22.904C68.1477 23.128 67.6197 23.24 67.0277 23.24C66.2917 23.24 65.7317 23.016 65.3477 22.568C64.9637 22.12 64.7717 21.488 64.7717 20.672H64.6517C64.1877 21.504 63.5877 22.136 62.8517 22.568C62.1157 23 61.2757 23.216 60.3317 23.216C59.3237 23.216 58.5157 22.936 57.9077 22.376C57.2997 21.8 56.9957 21.056 56.9957 20.144C56.9957 19.44 57.3077 18.784 57.9317 18.176C58.5557 17.552 59.5957 16.944 61.0517 16.352L64.4357 14.888ZM76.9104 23.24H75.1104L71.8224 13.376C71.5664 12.608 71.2704 12.072 70.9344 11.768C70.5984 11.448 70.1504 11.272 69.5904 11.24V10.28H76.4544V11.24C75.8784 11.256 75.4784 11.344 75.2544 11.504C75.0304 11.648 74.9184 11.904 74.9184 12.272C74.9184 12.448 74.9424 12.64 74.9904 12.848C75.0384 13.056 75.1024 13.296 75.1824 13.568L76.6944 19.184H76.7904L80.1504 10.28H82.1184L84.6384 19.184H84.7584L86.6784 14.216C86.8384 13.816 86.9504 13.472 87.0144 13.184C87.0784 12.88 87.1104 12.616 87.1104 12.392C87.1104 11.976 86.9744 11.68 86.7024 11.504C86.4304 11.328 86.0624 11.24 85.5984 11.24V10.28H90.7584V11.24C90.4704 11.24 90.2304 11.272 90.0384 11.336C89.8464 11.4 89.6544 11.552 89.4624 11.792C89.2704 12.032 89.0624 12.4 88.8384 12.896C88.6144 13.392 88.3344 14.072 87.9984 14.936L84.6864 23.24H82.7904L80.2464 14.72H80.1504L76.9104 23.24ZM90.8741 21.464C90.8741 20.952 91.0421 20.52 91.3781 20.168C91.7301 19.8 92.1621 19.616 92.6741 19.616C93.2021 19.616 93.6421 19.8 93.9941 20.168C94.3461 20.52 94.5221 20.952 94.5221 21.464C94.5221 21.96 94.3461 22.384 93.9941 22.736C93.6421 23.072 93.2021 23.24 92.6741 23.24C92.1621 23.24 91.7301 23.072 91.3781 22.736C91.0421 22.384 90.8741 21.96 90.8741 21.464Z" fill="#2E47BD"/>
</svg>
