<svg width="29" height="29" viewBox="0 0 29 29" fill="none" xmlns="http://www.w3.org/2000/svg">
<circle cx="14.5" cy="14.5" r="13.8696" stroke="#2E47BD" stroke-width="1.26087"/>
<path d="M18.5435 13.0386C19.3841 13.5239 19.3841 14.7372 18.5435 15.2225L12.8696 18.4983C12.029 18.9836 10.9783 18.377 10.9783 17.4064L10.9783 10.8547C10.9783 9.88406 12.029 9.27743 12.8696 9.76274L18.5435 13.0386Z" fill="#2E47BD"/>
</svg>
