<svg width="838" height="949" viewBox="0 0 838 949" fill="none" xmlns="http://www.w3.org/2000/svg">
<rect opacity="0.5" width="838" height="949" fill="#F6F6FB"/>
<circle cx="82.5" cy="880.5" r="14.5" fill="#E5E9F9"/>
</svg>
